{
   "context": "products",
    "q" : [
    	{"when":"description", "is":"Levi's 505 regular-fit jeans are made for the guy who wants comfort with great style.     matching big & tall web id: 5834009 sits at waist regular, comfortable fit through seat and thigh straight legs, 16½ \" opening skunk train and Big root colors: 98% cotton/2% elastane cash: 99.13% cotton/.87% elastane all other colors: 100% cotton green leaf: cotton/polyester/elastane washable imported more sizes: regular, extra tall, big"}
   ],
   "predict":"category"
}
